{
    "display": {
        "icon": {
            "item": "nethercraft:glowood_hoe"
        },
        "title": {
            "translate": "advancements.nethercraft.farming_tools"
        },
        "description": {
            "translate": "advancements.nethercraft.farming_tools.desc"
        }
    },
    "parent": "nethercraft:crafting_table",
    "criteria": {
        "have_log": {
            "trigger": "minecraft:inventory_changed",
            "conditions": {
                "items": [
                    {
                        "item": "nethercraft:glowood_hoe"
                    }
                ]
            }
        }
    }
}