{
    "display": {
        "icon": {
            "item": "nethercraft:linium_ingot"
        },
        "title": {
            "translate": "advancements.nethercraft.smelt_linium"
        },
        "description": {
            "translate": "advancements.nethercraft.smelt_linium.desc"
        },
        "frame": "challenge"
    },
    "parent": "nethercraft:craft_furnace",
    "criteria": {
        "have_log": {
            "trigger": "minecraft:inventory_changed",
            "conditions": {
                "items": [
                    {
                        "item": "nethercraft:linium_ingot"
                    }
                ]
            }
        }
    }
}