{
    "display": {
        "icon": {
            "item": "nethercraft:pyridium_ingot"
        },
        "title": {
            "translate": "advancements.nethercraft.smelt_pyridium"
        },
        "description": {
            "translate": "advancements.nethercraft.smelt_pyridium.desc"
        }
    },
    "parent": "nethercraft:craft_furnace",
    "criteria": {
        "have_log": {
            "trigger": "minecraft:inventory_changed",
            "conditions": {
                "items": [
                    {
                        "item": "nethercraft:pyridium_ingot"
                    }
                ]
            }
        }
    }
}