{
    
	"variants": {
        
		"axis=y":  { "model": "nethercraft:block/glowood_log" },
        
		"axis=z":   { "model": "nethercraft:block/glowood_log", "x": 90 },
        		
		"axis=x":   { "model": "nethercraft:block/glowood_log", "x": 90, "y": 90 }
	}

}
