{
    
	"variants": {
        
		"powered=false": { 
			"model": "nethercraft:block/glowood_pressure_plate_up" 
		},
        
		"powered=true": { 
			"model": "nethercraft:block/glowood_pressure_plate_down"
		}
    
	}

}
