{
    
	"variants": {
        
		"facing=north": { 
			"model": "nethercraft:block/glowood_ladder" 
		},
        
		"facing=east":  { 
			"model": "nethercraft:block/glowood_ladder", "y": 90 
		},
        
		"facing=south": { 
			"model": "nethercraft:block/glowood_ladder", "y": 180 
		},
        
		"facing=west":  { 
			"model": "nethercraft:block/glowood_ladder", "y": 270 
		}
    
	}

}
