{
  "type": "minecraft:crafting_shaped",
  "pattern": [
    "#",
    "#"
  ],
  "key": {
    "#": {
      "item": "nethercraft:ghast_bones"
    }
  },
  "result": {
    "item": "nethercraft:ghast_rod",
    "count": 8
  }
}