{
  "type": "minecraft:crafting_shaped",
  "pattern": [
    "X",
    "#",
    "#"
  ],
  "key": {
    "#": {
      "item": "nethercraft:glowood_stick"
    },
    "X": {
      "item": "nethercraft:glowood_planks"
    }
  },
  "result": {
    "item": "nethercraft:glowood_shovel"
  }
}