{
  "type": "minecraft:crafting_shaped",
  "group": "planks",
  "pattern": [
    "#"
  ],
  "key": {

    "#": {
      "item": "nethercraft:stripped_glowood_log"
    }
  },
  "result": {
    "item": "nethercraft:glowood_planks",
    "count": 4
  }
}