{
  "type": "minecraft:crafting_shaped",
  "pattern": [
    "XX",
    "X#",
    " #"
  ],
  "key": {
    "#": {
      "item": "nethercraft:glowood_stick"
    },
    "X": {
      "item": "nethercraft:glowood_planks"
    }
  },
  "result": {
    "item": "nethercraft:glowood_axe"
  }
}