{
  "type": "minecraft:crafting_shaped",
  "pattern": [
    "XXX",
    "X X",
    "X X"
  ],
  "key": {
    "X": {
      "item": "nethercraft:neridium_ingot"
    }
  },
  "result": {
    "item": "nethercraft:neridium_leggings"
  }
}