{
  "type": "minecraft:crafting_shaped",
  "pattern": [
    "X",
    "#",
    "Y"
  ],
  "key": {
    "#": {
      "item": "nethercraft:ghast_rod"
    },
    "X": {
      "item": "nethercraft:pyridium_ingot"
    },
    "Y": {
      "item": "nethercraft:red_feather"
    }
  },
  "result": {
    "item": "nethercraft:pyridium_arrow",
    "count": 4
  }
}