{
  "type": "minecraft:crafting_shaped",
  "pattern": [
    "WoW",
    "WWW",
    " W "
  ],
  "key": {
    "W": {
      "item": "nethercraft:glowood_planks"
    },
    "o": {
      "item": "nethercraft:neridium_ingot"
    }
  },
  "result": {
    "item": "minecraft:shield"
  }
}