{
  "type": "minecraft:crafting_shaped",
  "pattern": [
    "X",
    "#",
    "Y"
  ],
  "key": {
    "#": {
      "item": "nethercraft:glowood_stick"
    },
    "X": {
      "item": "minecraft:flint"
    },
    "Y": {
      "item": "nethercraft:red_feather"
    }
  },
  "result": {
    "item": "minecraft:arrow",
    "count": 4
  }
}