{
  "type": "minecraft:crafting_shapeless",
  "ingredients": [
    {
      "item": "minecraft:lava_bucket"
    },
    {
      "item": "nethercraft:w_dust"
    }
  ],
  "result": {
    "item": "nethercraft:w_obsidian_ingot"
  }
}