{
	"parent": "block/block",
	"texture_size": [64, 64],
	"textures": {
		"0": "nethercraft:tile_entity/glowood",
		"particle": "nethercraft:tile_entity/glowood"
	},
	"elements": [
		{
			"name": "chest_bottom",
			"from": [1, 0, 1],
			"to": [15, 10, 15],
			"faces": {
				"north": {"uv": [3.5, 8.25, 7, 10.75], "texture": "#0"},
				"east": {"uv": [10.5, 8.25, 14, 10.75], "texture": "#0"},
				"south": {"uv": [7, 8.25, 10.5, 10.75], "texture": "#0"},
				"west": {"uv": [0, 8.25, 3.5, 10.75], "texture": "#0"},
				"up": {"uv": [7, 4.75, 10.5, 8.25], "texture": "#0"},
				"down": {"uv": [3.5, 4.75, 7, 8.25], "texture": "#0"}
			}
		},
		{
			"name": "chest_top",
			"from": [1, 10, 1],
			"to": [15, 14, 15],
			"faces": {
				"north": {"uv": [3.5, 3.5, 7, 4.5], "texture": "#0"},
				"east": {"uv": [7, 3.5, 10.5, 4.5], "texture": "#0"},
				"south": {"uv": [10.5, 3.5, 14, 4.5], "texture": "#0"},
				"west": {"uv": [0, 3.5, 3.5, 4.5], "texture": "#0"},
				"up": {"uv": [7, 0, 10.5, 3.5], "texture": "#0"},
				"down": {"uv": [3.5, 0, 7, 3.5], "texture": "#0"}
			}
		},
		{
			"from": [7, 7, 0],
			"to": [9, 11, 1],
			"faces": {
				"north": {"uv": [0, 0.25, 0.5, 1.25], "texture": "#0"},
				"east": {"uv": [0.5, 0.25, 0.75, 1.25], "texture": "#0"},
				"south": {"uv": [0, 0.25, 0.5, 1.25], "texture": "#0"},
				"west": {"uv": [0.5, 0.25, 0.75, 1.25], "texture": "#0"},
				"up": {"uv": [0.25, 0, 0.75, 0.25], "texture": "#0"},
				"down": {"uv": [0.75, 0, 1.25, 0.25], "texture": "#0"}
			}
		}
	]
}